02_Capa-física/LabMedidas/ALL0002/A0002CH2.CSV

Memory Length,500,
Trigger Level,2.580E+00,
Source,CH2,
Vertical Units,V,
Vertical Scale,2.000E+00,
Vertical Position,0.000E+00,
Horizontal Units,s,
Horizontal Scale,2.500E-05,
Horizontal Position,0.000E+00,
Horizontal Mode,Main,
Sampling Period,1.000E-06,
Firmware,V1.09,
Time,26-Oct-17  2:45,
Waveform Data,
46,
42,
43,
47,
43,
47,
46,
42,
43,
47,
46,
43,
47,
42,
42,
48,
43,
47,
47,
42,
43,
47,
47,
42,
43,
47,
46,
42,
43,
47,
46,
42,
43,
47,
34,
47,
43,
47,
47,
43,
43,
47,
43,
47,
43,
47,
46,
22,
16,
38,
37,
47,
46,
43,
46,
43,
46,
43,
43,
47,
46,
22,
25,
16,
16,
20,
15,
40,
46,
35,
36,
16,
16,
21,
16,
20,
15,
21,
16,
40,
46,
34,
36,
17,
21,
15,
16,
20,
15,
39,
47,
34,
37,
17,
20,
15,
16,
20,
20,
15,
16,
39,
46,
35,
36,
16,
20,
16,
16,
38,
46,
34,
36,
16,
16,
20,
16,
21,
20,
16,
16,
39,
46,
34,
36,
17,
16,
21,
15,
20,
20,
16,
16,
38,
47,
34,
36,
15,
16,
20,
16,
20,
16,
20,
16,
38,
46,
35,
36,
16,
20,
16,
16,
21,
20,
15,
16,
38,
46,
35,
36,
17,
16,
20,
20,
16,
20,
16,
16,
39,
46,
35,
36,
15,
20,
15,
16,
21,
16,
21,
16,
39,
46,
35,
37,
17,
20,
15,
16,
20,
20,
15,
16,
40,
46,
35,
36,
16,
20,
16,
20,
16,
20,
15,
16,
39,
46,
35,
37,
16,
20,
16,
20,
15,
20,
16,
16,
39,
46,
35,
36,
17,
20,
16,
20,
15,
20,
15,
16,
38,
38,
47,
42,
47,
43,
47,
32,
46,
46,
35,
38,
16,
16,
21,
16,
20,
15,
20,
16,
39,
47,
35,
36,
17,
16,
22,
15,
20,
15,
39,
38,
47,
46,
43,
46,
43,
47,
43,
43,
47,
43,
47,
43,
47,
47,
42,
46,
42,
43,
47,
43,
47,
43,
47,
47,
42,
43,
47,
46,
43,
43,
47,
46,
42,
46,
43,
43,
47,
47,
43,
43,
47,
47,
43,
43,
47,
46,
43,
43,
46,
43,
47,
47,
43,
34,
47,
42,
47,
47,
43,
47,
43,
43,
47,
43,
47,
46,
22,
16,
40,
36,
47,
47,
43,
43,
47,
47,
43,
47,
43,
46,
23,
24,
16,
16,
20,
16,
39,
47,
35,
36,
16,
20,
16,
16,
20,
15,
20,
16,
40,
46,
35,
36,
17,
21,
16,
20,
15,
15,
39,
46,
35,
37,
17,
20,
16,
20,
16,
20,
16,
16,
39,
47,
35,
36,
17,
16,
20,
16,
39,
47,
34,
36,
16,
16,
21,
20,
15,
20,
16,
16,
40,
47,
35,
36,
17,
16,
20,
16,
20,
20,
16,
16,
39,
47,
34,
36,
16,
16,
20,
20,
15,
20,
15,
16,
39,
46,
36,
35,
17,
20,
16,
15,
21,
21,
15,
16,
39,
46,
34,
35,
16,
20,
16,
15,
21,
16,
20,
16,
39,
47,
34,
36,
17,
16,
20,
16,
20,
20,
15,
16,
39,
46,
35,
37,
16,
20,
16,
16,
20,
16,
21,
15,
38,
47,
34,
36,
17,
15,
21,
20,
16,
20,
16,
16,
39,
47,
34,
36,
16,
16,
20,
20,
16,
15,
20,
16,
40,
47,
35,
