02_Capa-física/LabMedidas/ALL0002/A0002CH1.CSV

Memory Length,500,
Trigger Level,2.580E+00,
Source,CH1,
Vertical Units,V,
Vertical Scale,2.000E+00,
Vertical Position,0.000E+00,
Horizontal Units,s,
Horizontal Scale,2.500E-05,
Horizontal Position,0.000E+00,
Horizontal Mode,Main,
Sampling Period,1.000E-06,
Firmware,V1.09,
Time,26-Oct-17  2:45,
Waveform Data,
30,
34,
30,
33,
30,
34,
30,
34,
30,
34,
33,
29,
30,
33,
33,
29,
30,
34,
30,
34,
30,
34,
30,
33,
33,
30,
30,
34,
33,
29,
30,
33,
34,
15,
15,
32,
29,
33,
29,
33,
34,
29,
30,
34,
33,
16,
18,
15,
15,
32,
29,
33,
33,
29,
29,
33,
30,
33,
33,
15,
19,
15,
18,
15,
19,
14,
15,
32,
32,
15,
19,
15,
19,
15,
18,
14,
18,
15,
15,
32,
33,
15,
14,
19,
15,
19,
18,
15,
15,
32,
33,
15,
15,
19,
19,
14,
18,
14,
19,
15,
15,
32,
32,
15,
19,
15,
18,
14,
16,
32,
32,
16,
14,
19,
14,
18,
19,
14,
18,
15,
15,
32,
32,
15,
19,
15,
18,
14,
19,
15,
15,
19,
14,
32,
32,
15,
18,
15,
18,
15,
18,
14,
18,
15,
15,
31,
32,
15,
18,
15,
18,
15,
18,
15,
15,
20,
15,
32,
33,
15,
19,
15,
18,
15,
18,
14,
18,
15,
15,
32,
32,
16,
19,
15,
18,
15,
18,
14,
14,
19,
15,
33,
33,
15,
15,
19,
18,
15,
15,
19,
18,
15,
15,
32,
32,
16,
18,
15,
15,
19,
18,
14,
15,
19,
15,
32,
32,
15,
15,
19,
18,
15,
18,
15,
15,
19,
15,
32,
33,
15,
19,
15,
15,
19,
15,
19,
15,
19,
15,
32,
29,
33,
33,
28,
33,
16,
15,
32,
32,
15,
15,
19,
18,
15,
15,
19,
18,
15,
15,
32,
32,
15,
19,
14,
20,
14,
18,
14,
15,
32,
33,
29,
33,
29,
29,
33,
30,
33,
30,
33,
29,
34,
30,
33,
33,
30,
29,
34,
30,
34,
30,
33,
30,
34,
30,
34,
34,
29,
33,
29,
33,
29,
33,
30,
34,
29,
29,
33,
34,
30,
33,
30,
34,
29,
33,
29,
30,
34,
30,
34,
30,
33,
34,
15,
15,
32,
29,
33,
29,
34,
28,
33,
29,
34,
33,
15,
15,
19,
16,
33,
28,
33,
33,
29,
29,
33,
30,
34,
33,
16,
15,
19,
19,
14,
18,
15,
16,
33,
32,
15,
15,
19,
19,
15,
18,
15,
18,
15,
14,
32,
33,
16,
18,
14,
15,
19,
15,
19,
15,
32,
33,
15,
19,
15,
18,
14,
15,
19,
15,
19,
15,
32,
32,
15,
18,
15,
18,
15,
15,
32,
32,
15,
15,
19,
18,
14,
14,
20,
18,
15,
14,
32,
32,
15,
18,
15,
18,
15,
15,
19,
15,
19,
15,
32,
33,
15,
18,
15,
19,
15,
18,
14,
15,
19,
15,
32,
33,
15,
19,
15,
18,
15,
14,
19,
15,
19,
15,
32,
32,
15,
15,
20,
18,
14,
18,
14,
15,
19,
15,
32,
33,
15,
19,
14,
19,
15,
18,
15,
18,
15,
15,
32,
32,
15,
15,
19,
18,
15,
15,
18,
15,
19,
15,
32,
33,
15,
18,
15,
15,
19,
18,
15,
18,
15,
15,
32,
32,
16,
15,
19,
15,
19,
15,
19,
15,
18,
15,
32,
33,
15,
