02_Capa-física/LabMedidas/ALL0000/A0000CH2.CSV

Memory Length,500,
Trigger Level,2.580E+00,
Source,CH2,
Vertical Units,V,
Vertical Scale,2.000E+00,
Vertical Position,0.000E+00,
Horizontal Units,s,
Horizontal Scale,1.000E-05,
Horizontal Position,0.000E+00,
Horizontal Mode,Main,
Sampling Period,4.000E-07,
Firmware,V1.09,
Time,26-Oct-17  2:44,
Waveform Data,
20,
16,
20,
20,
16,
20,
16,
16,
20,
16,
20,
20,
16,
20,
16,
17,
32,
31,
46,
46,
42,
46,
34,
37,
27,
28,
20,
21,
16,
20,
16,
16,
20,
16,
20,
16,
20,
16,
20,
20,
15,
16,
20,
16,
20,
17,
33,
32,
45,
46,
42,
46,
34,
37,
27,
28,
18,
20,
15,
20,
16,
16,
20,
16,
20,
16,
20,
16,
20,
20,
15,
16,
20,
20,
15,
17,
33,
32,
46,
43,
46,
45,
35,
36,
27,
29,
19,
20,
16,
16,
20,
20,
15,
20,
16,
15,
20,
16,
20,
16,
20,
16,
20,
20,
16,
17,
33,
32,
46,
46,
43,
45,
35,
38,
26,
28,
18,
21,
16,
20,
15,
16,
21,
16,
20,
20,
15,
20,
16,
16,
20,
20,
16,
20,
16,
17,
33,
31,
46,
46,
42,
45,
35,
36,
26,
29,
18,
21,
16,
16,
19,
20,
16,
16,
20,
20,
16,
20,
15,
16,
20,
20,
15,
16,
20,
17,
33,
33,
46,
46,
43,
45,
34,
36,
27,
29,
19,
21,
16,
16,
20,
16,
20,
20,
16,
20,
16,
16,
20,
20,
16,
15,
20,
20,
15,
17,
33,
32,
45,
47,
43,
46,
43,
46,
43,
43,
46,
47,
43,
43,
47,
47,
42,
44,
32,
33,
46,
43,
47,
46,
42,
46,
34,
36,
28,
29,
20,
22,
16,
20,
16,
20,
15,
16,
19,
16,
20,
16,
20,
20,
16,
15,
20,
16,
20,
17,
34,
32,
45,
46,
43,
46,
33,
37,
27,
29,
19,
20,
16,
20,
16,
16,
20,
16,
21,
16,
20,
16,
20,
16,
28,
25,
40,
40,
46,
47,
43,
47,
42,
46,
43,
43,
47,
46,
43,
46,
43,
43,
47,
46,
43,
46,
43,
46,
43,
43,
47,
47,
42,
43,
46,
43,
46,
46,
42,
43,
46,
43,
46,
46,
42,
46,
43,
43,
47,
43,
46,
47,
43,
46,
42,
47,
43,
46,
43,
47,
43,
43,
47,
46,
43,
46,
43,
46,
43,
43,
47,
46,
43,
46,
43,
46,
43,
47,
42,
46,
43,
46,
42,
46,
43,
46,
43,
47,
43,
46,
43,
46,
42,
43,
47,
46,
43,
46,
43,
44,
46,
46,
43,
46,
43,
43,
47,
43,
47,
46,
43,
47,
42,
46,
43,
43,
47,
43,
47,
46,
43,
42,
47,
43,
47,
46,
43,
46,
43,
43,
47,
46,
42,
46,
43,
46,
43,
47,
43,
43,
47,
46,
41,
34,
42,
41,
46,
46,
43,
43,
47,
43,
46,
47,
43,
46,
42,
43,
47,
43,
47,
43,
47,
47,
43,
46,
43,
46,
43,
43,
46,
47,
39,
40,
30,
31,
23,
24,
16,
17,
33,
32,
45,
43,
47,
47,
42,
43,
46,
44,
47,
46,
43,
42,
46,
46,
43,
46,
42,
46,
43,
43,
47,
46,
43,
46,
43,
45,
34,
35,
25,
28,
16,
16,
20,
19,
15,
16,
20,
16,
20,
20,
16,
16,
26,
25,
40,
39,
46,
46,
38,
40,
30,
32,
