02_Capa-física/LabMedidas/ALL0003/A0003CH1.CSV

Memory Length,500,
Trigger Level,2.580E+00,
Source,CH1,
Vertical Units,V,
Vertical Scale,2.000E+00,
Vertical Position,0.000E+00,
Horizontal Units,s,
Horizontal Scale,1.000E-04,
Horizontal Position,0.000E+00,
Horizontal Mode,Main,
Sampling Period,4.000E-06,
Firmware,V1.09,
Time,26-Oct-17  2:46,
Waveform Data,
15,
33,
14,
32,
33,
14,
32,
14,
14,
33,
15,
32,
32,
15,
15,
32,
14,
32,
34,
14,
14,
33,
15,
32,
33,
14,
14,
34,
14,
32,
32,
15,
32,
14,
14,
32,
34,
15,
32,
15,
14,
32,
14,
33,
29,
34,
34,
29,
29,
34,
30,
34,
34,
29,
34,
29,
33,
15,
34,
16,
15,
33,
33,
15,
14,
32,
19,
14,
33,
14,
33,
14,
15,
32,
33,
15,
33,
14,
14,
33,
14,
32,
33,
14,
15,
33,
14,
31,
32,
15,
14,
33,
14,
32,
33,
14,
15,
32,
14,
32,
32,
15,
15,
32,
15,
32,
34,
15,
33,
14,
33,
14,
14,
33,
29,
34,
29,
34,
34,
29,
34,
29,
30,
34,
34,
29,
34,
15,
33,
16,
15,
33,
33,
14,
15,
32,
19,
14,
32,
14,
15,
33,
14,
31,
32,
15,
33,
14,
15,
32,
14,
32,
33,
14,
14,
32,
14,
32,
33,
14,
32,
14,
14,
32,
32,
15,
15,
33,
14,
32,
32,
14,
14,
33,
14,
32,
33,
15,
32,
15,
15,
32,
15,
33,
29,
34,
29,
34,
34,
29,
34,
29,
34,
29,
30,
34,
34,
15,
34,
16,
14,
33,
34,
15,
14,
33,
14,
20,
15,
33,
14,
33,
14,
32,
32,
15,
32,
14,
14,
33,
14,
32,
32,
14,
14,
32,
14,
32,
32,
14,
14,
32,
14,
32,
32,
14,
32,
14,
14,
33,
32,
14,
14,
32,
15,
32,
34,
15,
33,
14,
14,
33,
15,
33,
34,
29,
29,
34,
29,
34,
30,
34,
34,
29,
30,
34,
34,
16,
33,
16,
15,
33,
34,
15,
15,
32,
19,
14,
33,
14,
33,
14,
15,
32,
33,
15,
33,
14,
14,
33,
14,
32,
33,
14,
15,
33,
15,
32,
34,
15,
15,
32,
15,
32,
32,
15,
15,
33,
15,
32,
32,
15,
15,
32,
14,
31,
33,
14,
33,
15,
15,
32,
15,
33,
29,
34,
30,
34,
34,
29,
34,
29,
34,
29,
34,
29,
33,
15,
34,
15,
15,
33,
34,
15,
14,
32,
19,
15,
14,
33,
33,
14,
15,
31,
32,
14,
32,
15,
14,
33,
14,
32,
32,
14,
15,
33,
14,
32,
32,
14,
15,
32,
14,
32,
32,
14,
14,
33,
15,
32,
33,
15,
14,
32,
14,
32,
33,
15,
32,
14,
33,
14,
14,
33,
29,
34,
30,
34,
30,
34,
34,
29,
34,
29,
29,
34,
34,
15,
34,
16,
15,
33,
34,
15,
15,
32,
19,
14,
32,
14,
15,
33,
15,
32,
32,
14,
33,
14,
15,
32,
14,
32,
32,
14,
15,
32,
15,
32,
33,
14,
15,
33,
14,
32,
33,
15,
14,
32,
14,
32,
32,
15,
14,
33,
14,
32,
33,
14,
32,
14,
15,
32,
15,
32,
29,
34,
29,
34,
30,
34,
30,
34,
34,
29,
29,
34,
34,
15,
33,
15,
14,
33,
34,
16,
14,
32,
19,
14,
15,
32,
33,
14,
14,
32,
32,
14,
32,
14,
14,
33,
