02_Capa-física/LabMedidas/ALL0003/A0003CH2.CSV

Memory Length,500,
Trigger Level,2.580E+00,
Source,CH2,
Vertical Units,V,
Vertical Scale,2.000E+00,
Vertical Position,0.000E+00,
Horizontal Units,s,
Horizontal Scale,1.000E-04,
Horizontal Position,0.000E+00,
Horizontal Mode,Main,
Sampling Period,4.000E-06,
Firmware,V1.09,
Time,26-Oct-17  2:46,
Waveform Data,
15,
46,
32,
16,
16,
46,
46,
15,
15,
47,
33,
15,
16,
47,
16,
46,
32,
16,
46,
15,
15,
47,
32,
15,
16,
47,
15,
47,
32,
15,
15,
46,
16,
46,
32,
15,
16,
47,
47,
15,
15,
47,
16,
46,
43,
47,
47,
43,
47,
42,
47,
43,
47,
42,
48,
42,
47,
34,
43,
47,
47,
17,
47,
39,
15,
46,
46,
16,
16,
47,
16,
46,
32,
16,
16,
46,
46,
15,
16,
46,
33,
15,
16,
47,
16,
47,
32,
16,
16,
46,
15,
46,
32,
16,
47,
15,
16,
46,
33,
15,
46,
16,
16,
46,
32,
15,
16,
48,
46,
16,
16,
46,
15,
46,
47,
42,
43,
47,
47,
42,
47,
43,
43,
47,
48,
42,
47,
33,
43,
47,
47,
16,
47,
38,
15,
46,
47,
16,
15,
46,
16,
46,
31,
15,
16,
47,
46,
15,
15,
47,
32,
16,
16,
46,
16,
46,
32,
15,
16,
47,
16,
46,
32,
15,
47,
15,
15,
47,
32,
16,
16,
46,
16,
46,
31,
14,
16,
47,
47,
16,
16,
46,
15,
47,
43,
48,
43,
47,
48,
42,
47,
42,
43,
47,
43,
48,
47,
35,
43,
48,
47,
16,
47,
39,
15,
46,
47,
15,
16,
46,
15,
46,
32,
16,
16,
46,
46,
15,
16,
47,
32,
15,
16,
47,
15,
46,
32,
16,
16,
47,
16,
46,
32,
16,
16,
47,
15,
47,
31,
15,
16,
47,
16,
46,
32,
16,
16,
47,
47,
16,
15,
46,
16,
46,
47,
42,
47,
42,
47,
42,
42,
47,
42,
47,
47,
42,
47,
34,
43,
47,
47,
16,
47,
39,
16,
46,
47,
16,
16,
47,
16,
46,
32,
15,
16,
47,
15,
47,
15,
47,
32,
15,
16,
46,
15,
46,
31,
15,
16,
46,
16,
47,
32,
16,
16,
46,
16,
46,
31,
16,
16,
46,
15,
46,
32,
15,
16,
47,
47,
16,
15,
46,
16,
46,
42,
47,
43,
47,
47,
42,
47,
42,
47,
42,
43,
47,
48,
34,
47,
42,
47,
16,
48,
38,
15,
46,
46,
15,
16,
46,
15,
46,
31,
15,
46,
15,
46,
15,
15,
46,
32,
15,
15,
46,
15,
46,
32,
15,
16,
47,
15,
47,
32,
15,
47,
15,
15,
46,
32,
15,
47,
15,
15,
46,
32,
16,
16,
47,
46,
16,
16,
46,
15,
46,
42,
47,
43,
47,
42,
48,
43,
47,
47,
42,
47,
42,
47,
34,
42,
48,
47,
16,
48,
40,
15,
45,
46,
15,
16,
46,
16,
46,
30,
16,
16,
46,
16,
46,
15,
46,
31,
15,
47,
16,
15,
46,
31,
16,
47,
15,
15,
46,
31,
16,
15,
46,
16,
46,
32,
15,
16,
46,
15,
46,
32,
16,
16,
47,
46,
15,
15,
47,
16,
46,
42,
47,
42,
47,
43,
47,
47,
43,
42,
48,
47,
42,
47,
34,
43,
47,
47,
17,
47,
39,
15,
46,
47,
16,
16,
46,
16,
46,
31,
15,
15,
47,
16,
46,
16,
46,
