02_Capa-física/LabMedidas/ALL0001/A0001CH1.CSV

Memory Length,500,
Trigger Level,2.580E+00,
Source,CH1,
Vertical Units,V,
Vertical Scale,2.000E+00,
Vertical Position,0.000E+00,
Horizontal Units,s,
Horizontal Scale,1.000E-06,
Horizontal Position,-2.000E-07,
Horizontal Mode,Main,
Sampling Period,4.000E-08,
Firmware,V1.09,
Time,26-Oct-17  2:44,
Waveform Data,
16,
18,
18,
16,
18,
16,
17,
17,
18,
16,
16,
18,
17,
18,
16,
18,
16,
18,
17,
16,
17,
16,
18,
15,
16,
19,
16,
18,
18,
16,
18,
15,
15,
18,
16,
19,
18,
15,
16,
18,
16,
18,
16,
17,
16,
18,
18,
16,
17,
15,
15,
18,
16,
17,
17,
16,
16,
17,
17,
16,
17,
16,
18,
15,
16,
19,
16,
18,
18,
15,
17,
16,
16,
18,
16,
17,
17,
16,
16,
18,
16,
17,
16,
17,
16,
18,
15,
18,
17,
16,
18,
16,
18,
16,
18,
15,
16,
18,
17,
15,
15,
18,
16,
18,
17,
16,
15,
18,
18,
16,
18,
16,
18,
16,
16,
18,
16,
18,
16,
18,
16,
18,
18,
16,
16,
18,
17,
15,
18,
15,
16,
18,
16,
18,
17,
16,
16,
18,
16,
18,
18,
16,
16,
18,
16,
18,
16,
18,
16,
18,
16,
18,
18,
16,
14,
18,
16,
17,
16,
18,
18,
16,
17,
16,
18,
16,
16,
18,
18,
16,
18,
16,
18,
16,
18,
16,
16,
18,
17,
18,
15,
18,
16,
18,
16,
18,
16,
17,
16,
18,
18,
15,
17,
30,
31,
29,
30,
29,
30,
31,
31,
30,
32,
28,
30,
29,
28,
31,
29,
31,
29,
32,
29,
31,
29,
32,
30,
30,
32,
29,
30,
32,
30,
31,
30,
31,
32,
29,
31,
30,
30,
31,
30,
31,
30,
31,
29,
32,
32,
30,
32,
29,
33,
18,
19,
16,
16,
18,
18,
16,
16,
18,
16,
18,
18,
16,
16,
19,
17,
15,
16,
18,
18,
16,
16,
18,
19,
16,
18,
16,
17,
18,
15,
18,
16,
18,
16,
18,
18,
15,
18,
16,
16,
18,
16,
17,
18,
17,
18,
16,
16,
17,
16,
19,
16,
18,
18,
17,
18,
16,
16,
18,
19,
16,
18,
16,
18,
16,
16,
18,
18,
16,
18,
16,
18,
16,
16,
18,
16,
18,
18,
15,
18,
15,
16,
19,
17,
15,
16,
19,
18,
16,
17,
16,
16,
18,
16,
18,
16,
18,
18,
15,
18,
16,
18,
16,
18,
15,
16,
18,
18,
16,
16,
18,
16,
18,
18,
16,
15,
18,
17,
16,
18,
15,
16,
18,
16,
18,
15,
18,
17,
15,
17,
16,
16,
17,
17,
15,
15,
18,
16,
18,
17,
16,
18,
16,
16,
18,
15,
18,
18,
16,
15,
18,
16,
18,
16,
17,
15,
18,
16,
17,
17,
15,
18,
15,
16,
17,
18,
16,
18,
15,
17,
16,
15,
18,
18,
16,
16,
18,
18,
15,
17,
16,
16,
18,
16,
18,
18,
16,
16,
18,
15,
17,
18,
16,
16,
18,
18,
16,
16,
18,
17,
29,
31,
28,
29,
30,
30,
29,
31,
28,
30,
29,
30,
32,
29,
32,
30,
33,
30,
31,
31,
29,
29,
31,
30,
32,
31,
29,
29,
32,
30,
32,
32,
30,
30,
32,
30,
32,
30,
30,
32,
29,
30,
32,
32,
28,
30,
32,
31,
30,
30,
32,
30,
32,
30,
32,
29,
32,
