02_Capa-física/LabMedidas/ALL0001/A0001CH2.CSV

Memory Length,500,
Trigger Level,2.580E+00,
Source,CH2,
Vertical Units,V,
Vertical Scale,2.000E+00,
Vertical Position,0.000E+00,
Horizontal Units,s,
Horizontal Scale,1.000E-06,
Horizontal Position,-2.000E-07,
Horizontal Mode,Main,
Sampling Period,4.000E-08,
Firmware,V1.09,
Time,26-Oct-17  2:44,
Waveform Data,
28,
25,
27,
23,
26,
24,
25,
22,
22,
24,
25,
21,
20,
24,
22,
19,
18,
20,
20,
17,
20,
17,
19,
16,
17,
20,
20,
16,
17,
19,
17,
20,
20,
16,
16,
19,
18,
15,
20,
16,
17,
19,
18,
16,
16,
20,
19,
16,
17,
19,
18,
16,
18,
17,
18,
17,
19,
16,
16,
20,
17,
20,
19,
16,
16,
19,
18,
16,
17,
20,
16,
19,
18,
16,
19,
17,
20,
16,
19,
16,
16,
19,
18,
16,
19,
16,
19,
17,
18,
16,
19,
16,
18,
16,
19,
16,
17,
19,
18,
16,
18,
16,
17,
18,
18,
16,
16,
20,
16,
19,
17,
19,
17,
18,
19,
16,
16,
19,
19,
17,
18,
16,
16,
18,
18,
16,
17,
18,
17,
19,
17,
19,
20,
17,
17,
20,
19,
16,
16,
21,
16,
20,
19,
17,
19,
16,
18,
16,
16,
18,
18,
16,
17,
19,
16,
20,
16,
18,
17,
18,
19,
16,
20,
16,
19,
17,
17,
20,
17,
18,
18,
16,
18,
16,
16,
19,
17,
19,
17,
19,
20,
16,
17,
20,
19,
17,
21,
16,
17,
19,
17,
20,
16,
18,
16,
20,
17,
20,
21,
18,
19,
24,
20,
24,
23,
26,
25,
27,
26,
29,
27,
30,
31,
29,
31,
34,
31,
34,
34,
36,
35,
37,
38,
36,
37,
40,
39,
41,
40,
42,
42,
43,
43,
45,
43,
45,
45,
43,
44,
46,
43,
46,
43,
45,
46,
44,
46,
43,
44,
45,
46,
43,
44,
46,
46,
44,
45,
42,
42,
44,
43,
41,
42,
40,
41,
38,
40,
38,
39,
37,
38,
35,
38,
35,
34,
36,
33,
36,
35,
32,
33,
31,
34,
32,
32,
31,
32,
29,
31,
28,
28,
30,
29,
27,
29,
26,
28,
25,
27,
25,
25,
26,
24,
26,
23,
25,
24,
22,
24,
22,
23,
21,
22,
18,
21,
18,
21,
17,
20,
17,
17,
19,
19,
16,
19,
16,
18,
16,
19,
16,
16,
20,
17,
19,
17,
19,
16,
19,
19,
17,
16,
19,
17,
18,
19,
17,
20,
17,
16,
20,
18,
16,
19,
16,
20,
16,
19,
16,
19,
16,
16,
19,
18,
16,
20,
17,
17,
20,
17,
19,
18,
16,
19,
15,
18,
16,
17,
20,
20,
16,
17,
19,
16,
19,
16,
18,
16,
20,
16,
19,
16,
20,
16,
20,
17,
19,
20,
17,
16,
19,
20,
16,
17,
18,
16,
19,
19,
16,
16,
18,
20,
16,
20,
17,
17,
20,
17,
19,
17,
20,
17,
20,
19,
17,
19,
16,
17,
19,
16,
18,
17,
19,
17,
20,
15,
20,
20,
16,
20,
17,
17,
18,
17,
19,
19,
16,
17,
20,
17,
21,
22,
20,
23,
25,
26,
23,
26,
27,
26,
28,
27,
30,
30,
31,
30,
33,
32,
35,
33,
36,
34,
38,
37,
39,
37,
40,
39,
42,
41,
43,
41,
44,
43,
46,
45,
43,
45,
44,
44,
45,
44,
46,
44,
46,
44,
46,
44,
46,
44,
46,
